^C:\USERS\PBIAL\DESKTOP\VISUALLAB4\CONSOLEAPPLICATION1\CONSOLEAPPLICATION1\DEBUG\CIASTO.OBJ|C:\USERS\PBIAL\DESKTOP\VISUALLAB4\CONSOLEAPPLICATION1\CONSOLEAPPLICATION1\DEBUG\CLIENT.OBJ|C:\USERS\PBIAL\DESKTOP\VISUALLAB4\CONSOLEAPPLICATION1\CONSOLEAPPLICATION1\DEBUG\COFFEE.OBJ|C:\USERS\PBIAL\DESKTOP\VISUALLAB4\CONSOLEAPPLICATION1\CONSOLEAPPLICATION1\DEBUG\CONSOLEAPPLICATION1.OBJ|C:\USERS\PBIAL\DESKTOP\VISUALLAB4\CONSOLEAPPLICATION1\CONSOLEAPPLICATION1\DEBUG\KANAPKA.OBJ|C:\USERS\PBIAL\DESKTOP\VISUALLAB4\CONSOLEAPPLICATION1\CONSOLEAPPLICATION1\DEBUG\MENUKLIENTA.OBJ|C:\USERS\PBIAL\DESKTOP\VISUALLAB4\CONSOLEAPPLICATION1\CONSOLEAPPLICATION1\DEBUG\MENUMAIN.OBJ|C:\USERS\PBIAL\DESKTOP\VISUALLAB4\CONSOLEAPPLICATION1\CONSOLEAPPLICATION1\DEBUG\MENUPRACOWNIKA.OBJ|C:\USERS\PBIAL\DESKTOP\VISUALLAB4\CONSOLEAPPLICATION1\CONSOLEAPPLICATION1\DEBUG\ORDER.OBJ|C:\USERS\PBIAL\DESKTOP\VISUALLAB4\CONSOLEAPPLICATION1\CONSOLEAPPLICATION1\DEBUG\PARAGON.OBJ|C:\USERS\PBIAL\DESKTOP\VISUALLAB4\CONSOLEAPPLICATION1\CONSOLEAPPLICATION1\DEBUG\PCH.OBJ
C:\PROGRAM FILES (X86)\WINDOWS KITS\10\LIB\10.0.17763.0\UM\X86\KERNEL32.LIB
C:\PROGRAM FILES (X86)\WINDOWS KITS\10\LIB\10.0.17763.0\UM\X86\USER32.LIB
C:\PROGRAM FILES (X86)\WINDOWS KITS\10\LIB\10.0.17763.0\UM\X86\GDI32.LIB
C:\PROGRAM FILES (X86)\WINDOWS KITS\10\LIB\10.0.17763.0\UM\X86\WINSPOOL.LIB
C:\PROGRAM FILES (X86)\WINDOWS KITS\10\LIB\10.0.17763.0\UM\X86\COMDLG32.LIB
C:\PROGRAM FILES (X86)\WINDOWS KITS\10\LIB\10.0.17763.0\UM\X86\ADVAPI32.LIB
C:\PROGRAM FILES (X86)\WINDOWS KITS\10\LIB\10.0.17763.0\UM\X86\SHELL32.LIB
C:\PROGRAM FILES (X86)\WINDOWS KITS\10\LIB\10.0.17763.0\UM\X86\OLE32.LIB
C:\PROGRAM FILES (X86)\WINDOWS KITS\10\LIB\10.0.17763.0\UM\X86\OLEAUT32.LIB
C:\PROGRAM FILES (X86)\WINDOWS KITS\10\LIB\10.0.17763.0\UM\X86\UUID.LIB
C:\PROGRAM FILES (X86)\WINDOWS KITS\10\LIB\10.0.17763.0\UM\X86\ODBC32.LIB
C:\PROGRAM FILES (X86)\WINDOWS KITS\10\LIB\10.0.17763.0\UM\X86\ODBCCP32.LIB
C:\USERS\PBIAL\DESKTOP\VISUALLAB4\CONSOLEAPPLICATION1\CONSOLEAPPLICATION1\DEBUG\CIASTO.OBJ
C:\USERS\PBIAL\DESKTOP\VISUALLAB4\CONSOLEAPPLICATION1\CONSOLEAPPLICATION1\DEBUG\CLIENT.OBJ
C:\USERS\PBIAL\DESKTOP\VISUALLAB4\CONSOLEAPPLICATION1\CONSOLEAPPLICATION1\DEBUG\COFFEE.OBJ
C:\USERS\PBIAL\DESKTOP\VISUALLAB4\CONSOLEAPPLICATION1\CONSOLEAPPLICATION1\DEBUG\CONSOLEAPPLICATION1.OBJ
C:\USERS\PBIAL\DESKTOP\VISUALLAB4\CONSOLEAPPLICATION1\CONSOLEAPPLICATION1\DEBUG\KANAPKA.OBJ
C:\USERS\PBIAL\DESKTOP\VISUALLAB4\CONSOLEAPPLICATION1\CONSOLEAPPLICATION1\DEBUG\MENUKLIENTA.OBJ
C:\USERS\PBIAL\DESKTOP\VISUALLAB4\CONSOLEAPPLICATION1\CONSOLEAPPLICATION1\DEBUG\MENUMAIN.OBJ
C:\USERS\PBIAL\DESKTOP\VISUALLAB4\CONSOLEAPPLICATION1\CONSOLEAPPLICATION1\DEBUG\MENUPRACOWNIKA.OBJ
C:\USERS\PBIAL\DESKTOP\VISUALLAB4\CONSOLEAPPLICATION1\CONSOLEAPPLICATION1\DEBUG\ORDER.OBJ
C:\USERS\PBIAL\DESKTOP\VISUALLAB4\CONSOLEAPPLICATION1\CONSOLEAPPLICATION1\DEBUG\PARAGON.OBJ
C:\USERS\PBIAL\DESKTOP\VISUALLAB4\CONSOLEAPPLICATION1\CONSOLEAPPLICATION1\DEBUG\PCH.OBJ
C:\WINDOWS\GLOBALIZATION\SORTING\SORTDEFAULT.NLS
C:\PROGRAM FILES (X86)\MICROSOFT VISUAL STUDIO\2017\COMMUNITY\VC\TOOLS\MSVC\14.16.27023\LIB\X86\MSVCPRTD.LIB
C:\PROGRAM FILES (X86)\MICROSOFT VISUAL STUDIO\2017\COMMUNITY\VC\TOOLS\MSVC\14.16.27023\LIB\X86\MSVCRTD.LIB
C:\PROGRAM FILES (X86)\MICROSOFT VISUAL STUDIO\2017\COMMUNITY\VC\TOOLS\MSVC\14.16.27023\LIB\X86\OLDNAMES.LIB
C:\PROGRAM FILES (X86)\MICROSOFT VISUAL STUDIO\2017\COMMUNITY\VC\TOOLS\MSVC\14.16.27023\LIB\X86\VCRUNTIMED.LIB
C:\PROGRAM FILES (X86)\WINDOWS KITS\10\LIB\10.0.17763.0\UCRT\X86\UCRTD.LIB
C:\PROGRAM FILES (X86)\WINDOWS KITS\10\BIN\10.0.17763.0\X86\RC.EXE
C:\PROGRAM FILES (X86)\MICROSOFT VISUAL STUDIO\2017\COMMUNITY\VC\TOOLS\MSVC\14.16.27023\BIN\HOSTX86\X86\CVTRES.EXE
C:\WINDOWS\SYSTEM32\TZRES.DLL
C:\PROGRAM FILES (X86)\MICROSOFT VISUAL STUDIO\2017\COMMUNITY\VC\TOOLS\MSVC\14.16.27023\BIN\HOSTX86\X86\MSPDBSRV.EXE
C:\PROGRAM FILES (X86)\MICROSOFT VISUAL STUDIO\2017\COMMUNITY\VC\TOOLS\MSVC\14.16.27023\BIN\HOSTX86\X86\VCTIP.EXE
^C:\USERS\PBIAL\DESKTOP\VISUALLAB4 — KOPIA\CONSOLEAPPLICATION1\CONSOLEAPPLICATION1\DEBUG\CIASTO.OBJ|C:\USERS\PBIAL\DESKTOP\VISUALLAB4 — KOPIA\CONSOLEAPPLICATION1\CONSOLEAPPLICATION1\DEBUG\CLIENT.OBJ|C:\USERS\PBIAL\DESKTOP\VISUALLAB4 — KOPIA\CONSOLEAPPLICATION1\CONSOLEAPPLICATION1\DEBUG\COFFEE.OBJ|C:\USERS\PBIAL\DESKTOP\VISUALLAB4 — KOPIA\CONSOLEAPPLICATION1\CONSOLEAPPLICATION1\DEBUG\CONSOLEAPPLICATION1.OBJ|C:\USERS\PBIAL\DESKTOP\VISUALLAB4 — KOPIA\CONSOLEAPPLICATION1\CONSOLEAPPLICATION1\DEBUG\KANAPKA.OBJ|C:\USERS\PBIAL\DESKTOP\VISUALLAB4 — KOPIA\CONSOLEAPPLICATION1\CONSOLEAPPLICATION1\DEBUG\MENUKLIENTA.OBJ|C:\USERS\PBIAL\DESKTOP\VISUALLAB4 — KOPIA\CONSOLEAPPLICATION1\CONSOLEAPPLICATION1\DEBUG\MENUMAIN.OBJ|C:\USERS\PBIAL\DESKTOP\VISUALLAB4 — KOPIA\CONSOLEAPPLICATION1\CONSOLEAPPLICATION1\DEBUG\MENUPRACOWNIKA.OBJ|C:\USERS\PBIAL\DESKTOP\VISUALLAB4 — KOPIA\CONSOLEAPPLICATION1\CONSOLEAPPLICATION1\DEBUG\ORDER.OBJ|C:\USERS\PBIAL\DESKTOP\VISUALLAB4 — KOPIA\CONSOLEAPPLICATION1\CONSOLEAPPLICATION1\DEBUG\PARAGON.OBJ|C:\USERS\PBIAL\DESKTOP\VISUALLAB4 — KOPIA\CONSOLEAPPLICATION1\CONSOLEAPPLICATION1\DEBUG\PCH.OBJ
C:\PROGRAM FILES (X86)\WINDOWS KITS\10\LIB\10.0.17763.0\UM\X86\KERNEL32.LIB
C:\PROGRAM FILES (X86)\WINDOWS KITS\10\LIB\10.0.17763.0\UM\X86\USER32.LIB
C:\PROGRAM FILES (X86)\WINDOWS KITS\10\LIB\10.0.17763.0\UM\X86\GDI32.LIB
C:\PROGRAM FILES (X86)\WINDOWS KITS\10\LIB\10.0.17763.0\UM\X86\WINSPOOL.LIB
C:\PROGRAM FILES (X86)\WINDOWS KITS\10\LIB\10.0.17763.0\UM\X86\COMDLG32.LIB
C:\PROGRAM FILES (X86)\WINDOWS KITS\10\LIB\10.0.17763.0\UM\X86\ADVAPI32.LIB
C:\PROGRAM FILES (X86)\WINDOWS KITS\10\LIB\10.0.17763.0\UM\X86\SHELL32.LIB
C:\PROGRAM FILES (X86)\WINDOWS KITS\10\LIB\10.0.17763.0\UM\X86\OLE32.LIB
C:\PROGRAM FILES (X86)\WINDOWS KITS\10\LIB\10.0.17763.0\UM\X86\OLEAUT32.LIB
C:\PROGRAM FILES (X86)\WINDOWS KITS\10\LIB\10.0.17763.0\UM\X86\UUID.LIB
C:\PROGRAM FILES (X86)\WINDOWS KITS\10\LIB\10.0.17763.0\UM\X86\ODBC32.LIB
C:\PROGRAM FILES (X86)\WINDOWS KITS\10\LIB\10.0.17763.0\UM\X86\ODBCCP32.LIB
C:\USERS\PBIAL\DESKTOP\VISUALLAB4 — KOPIA\CONSOLEAPPLICATION1\CONSOLEAPPLICATION1\DEBUG\CIASTO.OBJ
C:\USERS\PBIAL\DESKTOP\VISUALLAB4 — KOPIA\CONSOLEAPPLICATION1\CONSOLEAPPLICATION1\DEBUG\CLIENT.OBJ
C:\USERS\PBIAL\DESKTOP\VISUALLAB4 — KOPIA\CONSOLEAPPLICATION1\CONSOLEAPPLICATION1\DEBUG\COFFEE.OBJ
C:\USERS\PBIAL\DESKTOP\VISUALLAB4 — KOPIA\CONSOLEAPPLICATION1\CONSOLEAPPLICATION1\DEBUG\CONSOLEAPPLICATION1.OBJ
C:\USERS\PBIAL\DESKTOP\VISUALLAB4 — KOPIA\CONSOLEAPPLICATION1\CONSOLEAPPLICATION1\DEBUG\KANAPKA.OBJ
C:\USERS\PBIAL\DESKTOP\VISUALLAB4 — KOPIA\CONSOLEAPPLICATION1\CONSOLEAPPLICATION1\DEBUG\MENUKLIENTA.OBJ
C:\USERS\PBIAL\DESKTOP\VISUALLAB4 — KOPIA\CONSOLEAPPLICATION1\CONSOLEAPPLICATION1\DEBUG\MENUMAIN.OBJ
C:\USERS\PBIAL\DESKTOP\VISUALLAB4 — KOPIA\CONSOLEAPPLICATION1\CONSOLEAPPLICATION1\DEBUG\MENUPRACOWNIKA.OBJ
C:\USERS\PBIAL\DESKTOP\VISUALLAB4 — KOPIA\CONSOLEAPPLICATION1\CONSOLEAPPLICATION1\DEBUG\ORDER.OBJ
C:\USERS\PBIAL\DESKTOP\VISUALLAB4 — KOPIA\CONSOLEAPPLICATION1\CONSOLEAPPLICATION1\DEBUG\PARAGON.OBJ
C:\USERS\PBIAL\DESKTOP\VISUALLAB4 — KOPIA\CONSOLEAPPLICATION1\CONSOLEAPPLICATION1\DEBUG\PCH.OBJ
C:\WINDOWS\SYSTEM32\TZRES.DLL
C:\WINDOWS\GLOBALIZATION\SORTING\SORTDEFAULT.NLS
C:\PROGRAM FILES (X86)\MICROSOFT VISUAL STUDIO\2017\COMMUNITY\VC\TOOLS\MSVC\14.16.27023\LIB\X86\MSVCPRTD.LIB
C:\PROGRAM FILES (X86)\MICROSOFT VISUAL STUDIO\2017\COMMUNITY\VC\TOOLS\MSVC\14.16.27023\LIB\X86\MSVCRTD.LIB
C:\PROGRAM FILES (X86)\MICROSOFT VISUAL STUDIO\2017\COMMUNITY\VC\TOOLS\MSVC\14.16.27023\LIB\X86\OLDNAMES.LIB
C:\PROGRAM FILES (X86)\MICROSOFT VISUAL STUDIO\2017\COMMUNITY\VC\TOOLS\MSVC\14.16.27023\LIB\X86\VCRUNTIMED.LIB
C:\PROGRAM FILES (X86)\WINDOWS KITS\10\LIB\10.0.17763.0\UCRT\X86\UCRTD.LIB
C:\PROGRAM FILES (X86)\MICROSOFT VISUAL STUDIO\2017\COMMUNITY\VC\TOOLS\MSVC\14.16.27023\BIN\HOSTX86\X86\MSPDBSRV.EXE
C:\PROGRAM FILES (X86)\MICROSOFT VISUAL STUDIO\2017\COMMUNITY\VC\TOOLS\MSVC\14.16.27023\BIN\HOSTX86\X86\VCTIP.EXE
