﻿  Client.cpp
  ConsoleApplication1.cpp
c:\users\pbial\desktop\visuallab4 — kopia\consoleapplication1\consoleapplication1\consoleapplication1.cpp(43): warning C4101: "answer": lokalna zmienna, do której nie istnieje odwołanie
c:\users\pbial\desktop\visuallab4 — kopia\consoleapplication1\consoleapplication1\consoleapplication1.cpp(92): warning C4244: "argument": konwersja z "int" do "float", możliwa utrata danych
c:\users\pbial\desktop\visuallab4 — kopia\consoleapplication1\consoleapplication1\consoleapplication1.cpp(162): warning C4244: "argument": konwersja z "int" do "float", możliwa utrata danych
c:\users\pbial\desktop\visuallab4 — kopia\consoleapplication1\consoleapplication1\consoleapplication1.cpp(145): warning C4101: "bufferValue": lokalna zmienna, do której nie istnieje odwołanie
  MenuMain.cpp
  MenuPracownika.cpp
  Paragon.cpp
  Generowanie kodu...
  ConsoleApplication1.vcxproj -> C:\Users\pbial\Desktop\visuallab4 — kopia\ConsoleApplication1\Debug\ConsoleApplication1.exe
